\relax 
\citation{burke2014growing,nabi2013facebook}
\citation{savi2008jogos}
\citation{tarouco2004jogos}
\citation{brasil2004}
\citation{brasil2011}
\citation{w3c2008}
\citation{cheiran2013jogos,cheiran2013b}
\citation{w3c2008}
\@writefile{toc}{\contentsline {section}{\numberline {1}Introduction}{1}}
\@writefile{toc}{\contentsline {subsection}{\numberline {1.1}Educational Digital Games}{1}}
\@writefile{toc}{\contentsline {subsection}{\numberline {1.2}Accessibility in Digital Games}{1}}
\citation{cheiran2013jogos,cheiran2013b}
\citation{w3c2008}
\citation{de2010ergonomia}
\citation{w3c2008}
\citation{cheiran2013b}
\@writefile{toc}{\contentsline {section}{\numberline {2}Research and Methodology}{2}}
\@writefile{toc}{\contentsline {subsection}{\numberline {2.1}Evaluated Games}{2}}
\@writefile{lof}{\contentsline {figure}{\numberline {2}{\ignorespaces Screenshot of the game Words with Friends.\relax }}{2}}
\newlabel{fig:WordsWithFriends}{{2}{2}}
\@writefile{lof}{\contentsline {figure}{\numberline {3}{\ignorespaces Screenshot of the game Trivia Crack.\relax }}{2}}
\newlabel{fig:triviaCrack}{{3}{2}}
\citation{cheiran2013b}
\citation{w3c2008}
\@writefile{lof}{\contentsline {figure}{\numberline {1}{\ignorespaces Checklist’s fragment of success criteria of WCAG 2.0.\relax }}{3}}
\providecommand*\caption@xref[2]{\@setref\relax\@undefined{#1}}
\newlabel{fig:checklist}{{1}{3}}
\@writefile{lof}{\contentsline {figure}{\numberline {4}{\ignorespaces Screenshot of the game Math Minute.\relax }}{3}}
\newlabel{fig:triviaCrackMath}{{4}{3}}
\@writefile{toc}{\contentsline {section}{\numberline {3}Results and Discussions}{3}}
\@writefile{lot}{\contentsline {table}{\numberline {1}{\ignorespaces Description of common accessibility problems in games\relax }}{3}}
\newlabel{tab:tabela1}{{1}{3}}
\@writefile{lof}{\contentsline {figure}{\numberline {5}{\ignorespaces Evaluation of the game Words with Friends.\relax }}{4}}
\newlabel{fig:words}{{5}{4}}
\@writefile{lof}{\contentsline {figure}{\numberline {6}{\ignorespaces Evaluation of the game Trivia Crack.\relax }}{4}}
\newlabel{fig:trivia}{{6}{4}}
\@writefile{lof}{\contentsline {figure}{\numberline {7}{\ignorespaces Evaluation of the game Math Minute.\relax }}{4}}
\newlabel{fig:math}{{7}{4}}
\@writefile{lot}{\contentsline {table}{\numberline {2}{\ignorespaces Description of accessibility problems of the game Words with Friends game\relax }}{5}}
\newlabel{tab:tabela2}{{2}{5}}
\@writefile{lot}{\contentsline {table}{\numberline {3}{\ignorespaces Description of accessibility problems of the game Trivia Crack.\relax }}{5}}
\newlabel{tab:tabela3}{{3}{5}}
\@writefile{toc}{\contentsline {section}{\numberline {4}Final Considerations}{5}}
\@writefile{lot}{\contentsline {table}{\numberline {4}{\ignorespaces Description of accessibility problems of the game Math Minute.\relax }}{5}}
\newlabel{tab:tabela4}{{4}{5}}
\bibstyle{sbgames}
\bibdata{template}
\bibcite{brasil2004}{\citename {Brasil }2004}
\bibcite{brasil2011}{\citename {Brasil }2011}
\bibcite{burke2014growing}{\citename {Burke and Kraut }2014}
\bibcite{cheiran2013b}{\citename {CHEIRAN }2013a}
\bibcite{cheiran2013jogos}{\citename {CHEIRAN }2013b}
\bibcite{de2010ergonomia}{\citename {Cybis et\nobreakspace  {}al\unhbox \voidb@x \hbox {.} }2010}
\bibcite{nabi2013facebook}{\citename {Nabi et\nobreakspace  {}al\unhbox \voidb@x \hbox {.} }2013}
\bibcite{savi2008jogos}{\citename {Savi and Ulbricht }2008}
\bibcite{tarouco2004jogos}{\citename {Tarouco et\nobreakspace  {}al\unhbox \voidb@x \hbox {.} }2004}
\bibcite{w3c2008}{\citename {W3C }2008}
